[
    { "id" : "please_don_t_bully_me_nagatoro", "image" : "https://cdn.myanimelist.net/images/anime/1900/110097.jpg"},
    { "id" : "yofukashi_no_uta", "image" : "https://cdn.myanimelist.net/images/anime/1045/123711.jpg"},
    { "id" : "boku_no_kokoro_no_yabai_yatsu", "image" : "https://cdn.myanimelist.net/images/anime/1710/135998l.jpg"},
    { "id" : "dandadan", "image" : "https://cdn.myanimelist.net/images/manga/2/248746.jpg"},
    { "id" : "berserk", "image" : "https://cdn.myanimelist.net/images/anime/12/41305.jpg"},
    { "id" : "chainsaw_man", "image" : "https://cdn.myanimelist.net/images/manga/5/254693.jpg"},
    { "id" : "komi_san_wa_komyushou_desu", "image" : "https://cdn.myanimelist.net/images/manga/2/259876.jpg"},
    { "id" : "oshi_no_ko_yokoyari_mengo", "image" : "https://cdn.myanimelist.net/images/anime/1812/134736.jpg"},
    { "id" : "mashle", "image" : "https://cdn.myanimelist.net/images/anime/1861/135106l.jpg"},
    { "id" : "mato_seihei_no_slave", "image" : "https://cdn.myanimelist.net/images/manga/3/260475l.jpg"},
    { "id" : "sono_bisque_doll_wa_koi_wo_suru", "image" : "https://cdn.myanimelist.net/images/anime/1179/119897l.jpg"},
    { "id" : "jigokuraku_kaku_yuuji", "image" : "https://cdn.myanimelist.net/images/anime/1075/131925.jpg"},
    { "id" : "no_game_no_life", "image" : "https://cdn.myanimelist.net/images/manga/2/209665.jpg"},
    { "id" : "kono_subarashii_sekai_ni_shukufuku_o", "image" : "https://cdn.myanimelist.net/images/anime/10/81311l.jpg"},
    { "id" : "tengoku_daimakyou", "image" : "https://cdn.myanimelist.net/images/anime/1949/129439l.jpg"},
    { "id" : "shuumatsu_no_walkure", "image" : "https://cdn.myanimelist.net/images/manga/3/209957l.jpg"}
]